,price,facade,flat_floor,total_floors,rooms,area,kitchen_area,condition,district,blocky,brick,monolithic,other,panel,wooden,new,old,centre,north_east,north_west,south_east,south_west
0,6500000,brick,5,9,2,42.0,6.0,old,south_west,0,1,0,0,0,0,0,1,0,0,0,0,1
1,5422107,monolithic,17,17,2,60.2,16.3,new,south_west,0,0,1,0,0,0,1,0,0,0,0,0,1
2,5500000,monolithic,5,14,2,53.0,11.0,new,south_east,0,0,1,0,0,0,1,0,0,0,0,1,0
3,5500000,panel,5,5,2,44.0,6.0,old,south_east,0,0,0,0,1,0,0,1,0,0,0,1,0
4,9555952,monolithic,16,16,2,60.3,17.1,new,south_east,0,0,1,0,0,0,1,0,0,0,0,1,0
5,14500000,brick,5,8,2,54.0,9.0,old,centre,0,1,0,0,0,0,0,1,1,0,0,0,0
6,8499000,monolithic,3,9,2,49.5,8.5,old,north_west,0,0,1,0,0,0,0,1,0,0,1,0,0
7,7677688,monolithic,8,20,2,43.8,10.5,new,north_east,0,0,1,0,0,0,1,0,0,1,0,0,0
8,11000000,brick,7,16,2,56.6,11.0,old,south_east,0,1,0,0,0,0,0,1,0,0,0,1,0
9,14355260,monolithic,16,23,2,70.3,19.0,new,centre,0,0,1,0,0,0,1,0,1,0,0,0,0
10,6645600,monolithic,12,15,2,56.8,13.6,new,south_east,0,0,1,0,0,0,1,0,0,0,0,1,0
11,9800000,brick,4,9,2,42.0,6.0,old,north_west,0,1,0,0,0,0,0,1,0,0,1,0,0
12,7800000,brick,3,5,2,43.0,6.0,old,centre,0,1,0,0,0,0,0,1,1,0,0,0,0
13,7662719,monolithic,17,21,2,56.4,10.0,new,north_east,0,0,1,0,0,0,1,0,0,1,0,0,0
14,9507520,monolithic,23,33,2,58.4,11.7,new,south_west,0,0,1,0,0,0,1,0,0,0,0,0,1
15,8300000,brick,3,9,2,45.0,5.0,old,centre,0,1,0,0,0,0,0,1,1,0,0,0,0
16,21800000,brick,4,9,2,58.0,9.2,old,centre,0,1,0,0,0,0,0,1,1,0,0,0,0
17,8471616,monolithic,5,5,2,60.9,15.0,new,north_east,0,0,1,0,0,0,1,0,0,1,0,0,0
18,82404060,monolithic,4,13,2,139.6,60.0,new,centre,0,0,1,0,0,0,1,0,1,0,0,0,0
19,8300000,brick,2,5,2,55.8,8.0,old,north_east,0,1,0,0,0,0,0,1,0,1,0,0,0
20,7350000,brick,1,5,2,44.9,9.0,old,north_west,0,1,0,0,0,0,0,1,0,0,1,0,0
21,14234840,monolithic,10,14,2,59.6,23.7,new,north_west,0,0,1,0,0,0,1,0,0,0,1,0,0
22,10500000,brick,8,9,2,44.0,7.0,old,centre,0,1,0,0,0,0,0,1,1,0,0,0,0
23,11500000,panel,3,25,2,53.0,10.0,old,centre,0,0,0,0,1,0,0,1,1,0,0,0,0
24,9600000,brick,1,5,2,43.0,5.6,old,north_west,0,1,0,0,0,0,0,1,0,0,1,0,0
25,7600000,blocky,4,5,2,42.0,5.1,old,north_east,1,0,0,0,0,0,0,1,0,1,0,0,0
26,8400000,monolithic,14,31,2,52.1,6.7,new,south_east,0,0,1,0,0,0,1,0,0,0,0,1,0
27,7800000,brick,11,15,2,47.2,8.5,old,north_west,0,1,0,0,0,0,0,1,0,0,1,0,0
28,14840000,monolithic,8,12,2,58.2,13.0,new,centre,0,0,1,0,0,0,1,0,1,0,0,0,0
29,11674940,monolithic,6,33,2,62.2,22.9,new,north_west,0,0,1,0,0,0,1,0,0,0,1,0,0
30,7560000,brick,4,5,2,43.0,5.8,old,north_west,0,1,0,0,0,0,0,1,0,0,1,0,0
31,15600000,monolithic,9,23,2,73.0,26.0,new,south_east,0,0,1,0,0,0,1,0,0,0,0,1,0
32,12337357,monolithic,1,31,2,70.6,12.8,old,south_east,0,0,1,0,0,0,0,1,0,0,0,1,0
33,8352000,monolithic,9,22,2,57.6,15.3,new,south_east,0,0,1,0,0,0,1,0,0,0,0,1,0
34,7800000,blocky,7,12,2,38.6,6.5,old,north_west,1,0,0,0,0,0,0,1,0,0,1,0,0
35,6200000,blocky,7,9,2,37.4,7.8,old,south_west,1,0,0,0,0,0,0,1,0,0,0,0,1
36,12900000,brick,3,24,2,66.0,20.0,old,north_west,0,1,0,0,0,0,0,1,0,0,1,0,0
37,9095800,panel,11,17,2,51.1,17.5,new,south_east,0,0,0,0,1,0,1,0,0,0,0,1,0
38,14000000,monolithic,5,17,2,55.0,9.0,old,centre,0,0,1,0,0,0,0,1,1,0,0,0,0
39,43669600,monolithic,4,19,2,114.9,15.0,new,centre,0,0,1,0,0,0,1,0,1,0,0,0,0
40,10766610,monolithic,12,33,2,52.7,19.1,new,north_west,0,0,1,0,0,0,1,0,0,0,1,0,0
41,8967240,monolithic,12,15,2,62.1,21.9,new,north_east,0,0,1,0,0,0,1,0,0,1,0,0,0
42,8136600,panel,4,9,2,71.0,21.7,new,south_east,0,0,0,0,1,0,1,0,0,0,0,1,0
43,11400000,panel,5,22,2,57.0,10.0,old,south_east,0,0,0,0,1,0,0,1,0,0,0,1,0
44,7839017,monolithic,11,15,2,48.7,19.6,new,south_east,0,0,1,0,0,0,1,0,0,0,0,1,0
45,8200000,monolithic,13,13,2,37.5,12.0,old,south_west,0,0,1,0,0,0,0,1,0,0,0,0,1
46,9300000,panel,15,16,2,61.0,10.3,old,north_west,0,0,0,0,1,0,0,1,0,0,1,0,0
47,38014412,monolithic,8,15,2,114.0,36.7,new,centre,0,0,1,0,0,0,1,0,1,0,0,0,0
48,12146070,monolithic,2,17,2,66.7,19.1,new,south_east,0,0,1,0,0,0,1,0,0,0,0,1,0
49,6149160,panel,15,25,2,52.2,11.7,new,south_east,0,0,0,0,1,0,1,0,0,0,0,1,0
50,11139879,monolithic,4,8,2,56.6,9.9,new,south_east,0,0,1,0,0,0,1,0,0,0,0,1,0
51,8100000,panel,8,14,2,60.0,9.8,old,south_east,0,0,0,0,1,0,0,1,0,0,0,1,0
52,13250000,blocky,3,12,2,54.0,10.0,old,centre,1,0,0,0,0,0,0,1,1,0,0,0,0
53,8700000,panel,1,14,2,51.0,9.0,old,south_west,0,0,0,0,1,0,0,1,0,0,0,0,1
54,27700000,monolithic,2,22,2,56.0,15.0,old,south_east,0,0,1,0,0,0,0,1,0,0,0,1,0
55,9517175,monolithic,3,21,2,75.8,20.9,new,north_east,0,0,1,0,0,0,1,0,0,1,0,0,0
56,29484000,monolithic,5,19,2,81.9,19.7,new,centre,0,0,1,0,0,0,1,0,1,0,0,0,0
57,12200000,monolithic,13,14,2,58.0,10.0,old,north_east,0,0,1,0,0,0,0,1,0,1,0,0,0
58,9990000,panel,1,16,2,58.8,7.4,old,south_east,0,0,0,0,1,0,0,1,0,0,0,1,0
59,7858760,panel,10,15,2,50.8,10.4,new,north_west,0,0,0,0,1,0,1,0,0,0,1,0,0
60,7733880,monolithic,1,15,2,59.4,22.3,new,south_east,0,0,1,0,0,0,1,0,0,0,0,1,0
61,5574620,monolithic,9,18,2,42.2,5.3,new,south_east,0,0,1,0,0,0,1,0,0,0,0,1,0
62,24700000,monolithic,17,19,2,75.0,14.3,old,north_west,0,0,1,0,0,0,0,1,0,0,1,0,0
63,14600000,panel,9,25,2,68.5,9.2,old,south_east,0,0,0,0,1,0,0,1,0,0,0,1,0
64,13141830,monolithic,11,14,2,60.5,21.2,new,centre,0,0,1,0,0,0,1,0,1,0,0,0,0
65,12266320,monolithic,16,24,2,52.6,12.3,new,north_west,0,0,1,0,0,0,1,0,0,0,1,0,0
66,9200000,panel,4,12,2,54.0,9.0,old,south_west,0,0,0,0,1,0,0,1,0,0,0,0,1
67,65329000,brick,4,13,2,86.6,15.0,old,centre,0,1,0,0,0,0,0,1,1,0,0,0,0
68,9800000,monolithic,8,17,2,56.0,10.0,old,south_west,0,0,1,0,0,0,0,1,0,0,0,0,1
69,10500000,panel,2,16,2,53.5,9.2,old,south_west,0,0,0,0,1,0,0,1,0,0,0,0,1
70,11800000,brick,4,8,2,53.0,13.0,old,north_west,0,1,0,0,0,0,0,1,0,0,1,0,0
71,7699000,panel,5,9,2,45.0,6.0,old,south_west,0,0,0,0,1,0,0,1,0,0,0,0,1
72,15112350,monolithic,14,22,2,78.1,20.4,new,south_east,0,0,1,0,0,0,1,0,0,0,0,1,0
73,9558900,panel,20,22,2,64.5,21.8,new,north_east,0,0,0,0,1,0,1,0,0,1,0,0,0
74,9000000,panel,8,16,2,54.0,10.0,old,south_east,0,0,0,0,1,0,0,1,0,0,0,1,0
75,7100000,brick,2,9,2,37.0,7.0,old,south_west,0,1,0,0,0,0,0,1,0,0,0,0,1
76,14500000,monolithic,2,25,2,64.8,9.8,old,north_west,0,0,1,0,0,0,0,1,0,0,1,0,0
77,8600000,panel,5,14,2,52.3,9.0,old,south_east,0,0,0,0,1,0,0,1,0,0,0,1,0
78,9722180,monolithic,16,17,2,61.3,13.9,new,south_west,0,0,1,0,0,0,1,0,0,0,0,0,1
79,19800000,brick,3,9,2,44.1,7.0,old,centre,0,1,0,0,0,0,0,1,1,0,0,0,0
80,15633900,panel,18,22,2,59.9,20.9,new,south_east,0,0,0,0,1,0,1,0,0,0,0,1,0
81,15500000,brick,8,8,2,56.0,9.0,old,south_east,0,1,0,0,0,0,0,1,0,0,0,1,0
82,6350000,brick,13,14,2,61.0,11.0,old,south_east,0,1,0,0,0,0,0,1,0,0,0,1,0
83,6640000,monolithic,4,12,2,47.4,11.0,new,south_east,0,0,1,0,0,0,1,0,0,0,0,1,0
84,11900000,brick,5,5,2,63.3,7.0,old,north_east,0,1,0,0,0,0,0,1,0,1,0,0,0
85,13338440,monolithic,21,23,2,55.6,20.8,new,north_west,0,0,1,0,0,0,1,0,0,0,1,0,0
86,13582250,monolithic,4,13,2,60.5,20.7,new,north_west,0,0,1,0,0,0,1,0,0,0,1,0,0
87,15087040,monolithic,15,20,2,60.8,9.4,new,centre,0,0,1,0,0,0,1,0,1,0,0,0,0
88,10500000,brick,3,5,2,45.0,7.0,old,south_east,0,1,0,0,0,0,0,1,0,0,0,1,0
89,10100000,brick,3,4,2,53.6,6.8,old,south_west,0,1,0,0,0,0,0,1,0,0,0,0,1
90,9600045,monolithic,8,18,2,50.9,9.46,new,south_west,0,0,1,0,0,0,1,0,0,0,0,0,1
91,5750000,panel,4,5,2,53.0,8.7,old,south_east,0,0,0,0,1,0,0,1,0,0,0,1,0
92,13833848,monolithic,15,22,2,62.5,17.5,new,north_west,0,0,1,0,0,0,1,0,0,0,1,0,0
93,16311160,monolithic,13,14,2,70.55,22.78,new,north_west,0,0,1,0,0,0,1,0,0,0,1,0,0
94,12800000,monolithic,9,20,2,65.0,12.0,old,south_east,0,0,1,0,0,0,0,1,0,0,0,1,0
95,8700000,panel,21,22,2,56.9,9.0,old,north_west,0,0,0,0,1,0,0,1,0,0,1,0,0
96,11307920,monolithic,27,31,2,52.4,11.3,new,north_east,0,0,1,0,0,0,1,0,0,1,0,0,0
97,10700000,panel,4,18,2,54.0,9.5,old,south_west,0,0,0,0,1,0,0,1,0,0,0,0,1
98,6700567,monolithic,4,19,2,43.0,10.0,new,south_east,0,0,1,0,0,0,1,0,0,0,0,1,0
99,7500000,monolithic,9,22,2,62.0,12.5,new,south_east,0,0,1,0,0,0,1,0,0,0,0,1,0
100,4705540,panel,9,13,2,55.1,10.1,new,south_east,0,0,0,0,1,0,1,0,0,0,0,1,0
101,11200000,panel,2,9,2,44.9,6.2,old,centre,0,0,0,0,1,0,0,1,1,0,0,0,0
102,10337200,monolithic,13,15,2,60.1,17.4,new,centre,0,0,1,0,0,0,1,0,1,0,0,0,0
103,14530444,monolithic,11,14,2,70.1,11.9,new,centre,0,0,1,0,0,0,1,0,1,0,0,0,0
104,14315840,monolithic,14,33,2,61.6,22.6,new,south_east,0,0,1,0,0,0,1,0,0,0,0,1,0
105,10317440,monolithic,13,16,2,44.8,8.1,new,south_west,0,0,1,0,0,0,1,0,0,0,0,0,1
106,9943960,monolithic,3,12,2,67.6,17.8,new,centre,0,0,1,0,0,0,1,0,1,0,0,0,0
107,20260110,monolithic,11,19,2,66.7,17.3,new,centre,0,0,1,0,0,0,1,0,1,0,0,0,0
108,9809570,monolithic,2,16,2,69.6,23.7,new,south_east,0,0,1,0,0,0,1,0,0,0,0,1,0
109,9946818,monolithic,31,34,2,42.8,9.3,new,north_west,0,0,1,0,0,0,1,0,0,0,1,0,0
110,16368451,monolithic,13,16,2,64.0,9.9,new,north_west,0,0,1,0,0,0,1,0,0,0,1,0,0
111,12755249,monolithic,4,11,2,63.7,13.8,new,south_west,0,0,1,0,0,0,1,0,0,0,0,0,1
112,7131790,panel,4,9,2,57.1,19.8,new,south_east,0,0,0,0,1,0,1,0,0,0,0,1,0
113,8930000,monolithic,7,24,2,57.8,8.9,old,north_east,0,0,1,0,0,0,0,1,0,1,0,0,0
114,11900000,panel,16,17,2,51.2,9.8,old,south_west,0,0,0,0,1,0,0,1,0,0,0,0,1
115,11000000,panel,4,9,2,44.0,6.5,old,north_west,0,0,0,0,1,0,0,1,0,0,1,0,0
116,8500000,brick,4,5,2,46.0,6.0,old,north_west,0,1,0,0,0,0,0,1,0,0,1,0,0
117,20000000,brick,3,9,2,62.0,12.0,old,centre,0,1,0,0,0,0,0,1,1,0,0,0,0
118,11406850,monolithic,3,24,2,76.3,13.5,old,south_west,0,0,1,0,0,0,0,1,0,0,0,0,1
119,22510000,monolithic,9,9,2,74.1,26.0,new,centre,0,0,1,0,0,0,1,0,1,0,0,0,0
120,6450000,monolithic,14,15,2,44.0,6.0,old,south_east,0,0,1,0,0,0,0,1,0,0,0,1,0
121,10200000,monolithic,2,14,2,60.0,10.0,old,south_west,0,0,1,0,0,0,0,1,0,0,0,0,1
122,18378170,brick,2,19,2,69.3,12.0,new,centre,0,1,0,0,0,0,1,0,1,0,0,0,0
123,23217850,monolithic,2,36,2,67.9,17.0,new,south_east,0,0,1,0,0,0,1,0,0,0,0,1,0
124,10476864,monolithic,14,16,2,60.6,22.8,new,north_west,0,0,1,0,0,0,1,0,0,0,1,0,0
125,8190000,panel,9,10,2,46.0,6.0,old,south_east,0,0,0,0,1,0,0,1,0,0,0,1,0
126,7785000,monolithic,3,25,2,51.9,10.4,new,south_east,0,0,1,0,0,0,1,0,0,0,0,1,0
127,9699000,monolithic,6,17,2,51.0,10.0,old,south_west,0,0,1,0,0,0,0,1,0,0,0,0,1
128,12300000,panel,3,21,2,58.0,10.0,old,south_east,0,0,0,0,1,0,0,1,0,0,0,1,0
129,2350000,brick,3,8,2,56.0,10.0,old,south_east,0,1,0,0,0,0,0,1,0,0,0,1,0
130,65991244,brick,8,9,2,101.6,21.8,old,centre,0,1,0,0,0,0,0,1,1,0,0,0,0
131,7500000,blocky,2,9,2,36.7,7.6,old,north_west,1,0,0,0,0,0,0,1,0,0,1,0,0
132,11990000,panel,6,9,2,44.4,6.0,old,north_east,0,0,0,0,1,0,0,1,0,1,0,0,0
133,11542500,monolithic,26,27,2,54.0,10.6,new,north_west,0,0,1,0,0,0,1,0,0,0,1,0,0
134,10821600,monolithic,10,30,2,54.0,15.4,new,centre,0,0,1,0,0,0,1,0,1,0,0,0,0
135,7042000,panel,4,12,2,45.5,6.6,old,north_west,0,0,0,0,1,0,0,1,0,0,1,0,0
136,15951000,monolithic,13,30,2,66.2,17.4,new,south_east,0,0,1,0,0,0,1,0,0,0,0,1,0
137,7500000,panel,6,9,2,42.5,6.0,old,north_east,0,0,0,0,1,0,0,1,0,1,0,0,0
138,22850000,monolithic,5,25,2,71.7,20.0,old,north_west,0,0,1,0,0,0,0,1,0,0,1,0,0
139,15250000,other,7,19,2,79.0,13.0,old,south_east,0,0,0,1,0,0,0,1,0,0,0,1,0
140,18105600,monolithic,18,24,2,65.6,13.7,new,north_west,0,0,1,0,0,0,1,0,0,0,1,0,0
141,9850000,monolithic,1,17,2,42.8,5.0,old,south_east,0,0,1,0,0,0,0,1,0,0,0,1,0
142,9000000,panel,4,9,2,57.0,12.0,old,south_east,0,0,0,0,1,0,0,1,0,0,0,1,0
143,12000000,brick,2,8,2,58.0,9.0,old,centre,0,1,0,0,0,0,0,1,1,0,0,0,0
144,10352091,monolithic,8,20,2,65.2,20.2,new,north_west,0,0,1,0,0,0,1,0,0,0,1,0,0
145,6500000,monolithic,5,25,2,44.0,6.0,new,south_east,0,0,1,0,0,0,1,0,0,0,0,1,0
146,11095337,monolithic,19,33,2,56.9,21.1,new,north_west,0,0,1,0,0,0,1,0,0,0,1,0,0
147,8576100,monolithic,2,22,2,58.5,8.2,new,north_east,0,0,1,0,0,0,1,0,0,1,0,0,0
148,8200000,panel,9,9,2,43.7,6.0,old,south_west,0,0,0,0,1,0,0,1,0,0,0,0,1
149,17500000,brick,11,12,2,57.3,9.7,old,centre,0,1,0,0,0,0,0,1,1,0,0,0,0
150,7018110,panel,15,25,2,56.1,18.8,new,north_west,0,0,0,0,1,0,1,0,0,0,1,0,0
151,9565080,panel,4,9,2,70.8,21.7,new,south_east,0,0,0,0,1,0,1,0,0,0,0,1,0
152,8893460,monolithic,5,23,2,62.6,15.3,new,south_east,0,0,1,0,0,0,1,0,0,0,0,1,0
153,13000000,panel,5,12,2,52.0,8.5,old,north_west,0,0,0,0,1,0,0,1,0,0,1,0,0
154,10210200,panel,18,24,2,66.3,11.6,new,south_east,0,0,0,0,1,0,1,0,0,0,0,1,0
155,9800000,brick,4,5,2,42.0,6.0,old,centre,0,1,0,0,0,0,0,1,1,0,0,0,0
156,7100000,panel,9,9,2,45.0,7.0,old,south_west,0,0,0,0,1,0,0,1,0,0,0,0,1
157,22990000,monolithic,11,22,2,85.0,30.0,old,north_west,0,0,1,0,0,0,0,1,0,0,1,0,0
158,14487240,monolithic,20,29,2,66.7,15.9,new,north_west,0,0,1,0,0,0,1,0,0,0,1,0,0
159,13948880,monolithic,8,25,2,48.4,15.5,new,south_east,0,0,1,0,0,0,1,0,0,0,0,1,0
160,16500000,brick,7,7,2,52.0,9.0,old,centre,0,1,0,0,0,0,0,1,1,0,0,0,0
161,8750000,monolithic,11,17,2,49.0,13.0,old,south_east,0,0,1,0,0,0,0,1,0,0,0,1,0
162,6900000,panel,1,9,2,48.0,6.0,old,south_west,0,0,0,0,1,0,0,1,0,0,0,0,1
163,14757830,monolithic,11,26,2,58.7,33.0,new,centre,0,0,1,0,0,0,1,0,1,0,0,0,0
164,7500000,monolithic,17,25,2,80.0,11.0,old,centre,0,0,1,0,0,0,0,1,1,0,0,0,0
165,13295700,monolithic,15,23,2,56.1,21.4,new,north_west,0,0,1,0,0,0,1,0,0,0,1,0,0
166,9300000,brick,7,9,2,48.3,7.8,old,south_east,0,1,0,0,0,0,0,1,0,0,0,1,0
167,25500000,monolithic,5,24,2,70.1,15.0,old,centre,0,0,1,0,0,0,0,1,1,0,0,0,0
168,14980000,monolithic,2,27,2,52.8,10.3,new,centre,0,0,1,0,0,0,1,0,1,0,0,0,0
169,16950000,brick,8,10,2,63.1,10.7,old,south_east,0,1,0,0,0,0,0,1,0,0,0,1,0
170,9900000,panel,12,17,2,54.1,9.5,old,north_west,0,0,0,0,1,0,0,1,0,0,1,0,0
171,7980231,monolithic,3,16,2,65.0,18.8,new,south_east,0,0,1,0,0,0,1,0,0,0,0,1,0
172,13500000,brick,6,10,2,58.9,8.0,old,centre,0,1,0,0,0,0,0,1,1,0,0,0,0
173,10314810,monolithic,6,17,2,75.9,11.6,new,south_west,0,0,1,0,0,0,1,0,0,0,0,0,1
174,10579200,panel,9,25,2,60.8,12.3,new,centre,0,0,0,0,1,0,1,0,1,0,0,0,0
175,8500000,panel,3,5,2,46.0,6.0,old,north_west,0,0,0,0,1,0,0,1,0,0,1,0,0
176,11000000,panel,8,9,2,44.4,6.0,old,centre,0,0,0,0,1,0,0,1,1,0,0,0,0
177,7750000,panel,2,9,2,38.0,6.0,old,north_east,0,0,0,0,1,0,0,1,0,1,0,0,0
178,11999999,panel,8,9,2,37.1,7.5,old,south_east,0,0,0,0,1,0,0,1,0,0,0,1,0
179,11200000,panel,14,17,2,59.0,10.0,old,north_west,0,0,0,0,1,0,0,1,0,0,1,0,0
180,20540000,brick,24,35,2,69.6,22.0,new,centre,0,1,0,0,0,0,1,0,1,0,0,0,0
181,8958960,monolithic,11,17,2,54.1,19.6,new,north_west,0,0,1,0,0,0,1,0,0,0,1,0,0
182,14100000,panel,6,17,2,51.2,9.0,old,south_east,0,0,0,0,1,0,0,1,0,0,0,1,0
183,14942040,monolithic,19,27,2,57.2,13.8,new,centre,0,0,1,0,0,0,1,0,1,0,0,0,0
184,24700000,monolithic,4,28,2,68.0,11.9,old,north_west,0,0,1,0,0,0,0,1,0,0,1,0,0
185,8800000,panel,10,14,2,38.7,6.5,old,north_east,0,0,0,0,1,0,0,1,0,1,0,0,0
186,14200000,monolithic,8,25,2,53.0,14.0,old,centre,0,0,1,0,0,0,0,1,1,0,0,0,0
187,7103359,monolithic,6,16,2,62.0,25.0,new,south_east,0,0,1,0,0,0,1,0,0,0,0,1,0
188,8163540,panel,3,9,2,68.2,21.7,new,south_east,0,0,0,0,1,0,1,0,0,0,0,1,0
189,8700000,blocky,10,12,2,47.0,9.5,old,centre,1,0,0,0,0,0,0,1,1,0,0,0,0
190,7200000,brick,7,9,2,34.5,6.0,old,south_west,0,1,0,0,0,0,0,1,0,0,0,0,1
191,11940740,monolithic,2,16,2,63.65,19.86,new,north_west,0,0,1,0,0,0,1,0,0,0,1,0,0
192,16237734,monolithic,8,14,2,74.6,15.7,new,centre,0,0,1,0,0,0,1,0,1,0,0,0,0
193,8000000,panel,9,12,2,52.0,9.0,old,south_west,0,0,0,0,1,0,0,1,0,0,0,0,1
194,6596070,panel,22,25,2,50.7,10.4,new,north_west,0,0,0,0,1,0,1,0,0,0,1,0,0
195,13696282,monolithic,22,23,2,60.0,11.0,new,south_east,0,0,1,0,0,0,1,0,0,0,0,1,0
196,26000000,brick,7,8,2,46.6,6.0,old,centre,0,1,0,0,0,0,0,1,1,0,0,0,0
197,6769620,panel,14,15,2,52.6,19.6,new,north_west,0,0,0,0,1,0,1,0,0,0,1,0,0
198,29423844,monolithic,6,24,2,81.0,30.0,new,centre,0,0,1,0,0,0,1,0,1,0,0,0,0
199,5500000,brick,2,9,2,56.0,11.0,old,south_east,0,1,0,0,0,0,0,1,0,0,0,1,0
200,12400000,monolithic,2,3,2,51.5,15.0,old,south_east,0,0,1,0,0,0,0,1,0,0,0,1,0
201,15470000,monolithic,14,37,2,61.0,10.0,old,centre,0,0,1,0,0,0,0,1,1,0,0,0,0
202,6400000,monolithic,17,19,2,62.0,11.0,old,centre,0,0,1,0,0,0,0,1,1,0,0,0,0
203,10000000,brick,2,5,2,43.0,6.0,old,north_east,0,1,0,0,0,0,0,1,0,1,0,0,0
204,19000000,brick,8,8,2,59.3,9.7,old,centre,0,1,0,0,0,0,0,1,1,0,0,0,0
205,14500000,monolithic,6,21,2,58.0,10.0,old,north_west,0,0,1,0,0,0,0,1,0,0,1,0,0
206,7900000,panel,3,9,2,40.0,6.0,old,north_west,0,0,0,0,1,0,0,1,0,0,1,0,0
207,16600000,monolithic,22,25,2,77.3,9.8,old,north_west,0,0,1,0,0,0,0,1,0,0,1,0,0
208,12000000,panel,3,10,2,56.0,9.5,old,south_east,0,0,0,0,1,0,0,1,0,0,0,1,0
209,10811742,monolithic,15,26,2,57.1,11.5,new,north_west,0,0,1,0,0,0,1,0,0,0,1,0,0
210,9540000,monolithic,7,10,2,47.7,22.6,new,south_west,0,0,1,0,0,0,1,0,0,0,0,0,1
211,21470000,monolithic,9,12,2,75.6,12.7,new,south_east,0,0,1,0,0,0,1,0,0,0,0,1,0
212,12279030,monolithic,21,23,2,56.3,20.9,new,north_west,0,0,1,0,0,0,1,0,0,0,1,0,0
213,18025660,monolithic,13,19,2,55.1,11.9,new,centre,0,0,1,0,0,0,1,0,1,0,0,0,0
214,8090790,panel,24,25,2,59.1,22.3,new,south_west,0,0,0,0,1,0,1,0,0,0,0,0,1
215,10900000,panel,1,12,2,49.0,7.5,old,centre,0,0,0,0,1,0,0,1,1,0,0,0,0
216,24517000,monolithic,2,22,2,67.7,8.1,new,centre,0,0,1,0,0,0,1,0,1,0,0,0,0
217,10700000,panel,13,16,2,58.0,11.0,old,north_west,0,0,0,0,1,0,0,1,0,0,1,0,0
218,10381750,panel,2,13,2,65.5,18.6,new,north_west,0,0,0,0,1,0,1,0,0,0,1,0,0
219,10200000,panel,9,12,2,40.0,6.0,old,centre,0,0,0,0,1,0,0,1,1,0,0,0,0
220,8500000,panel,12,17,2,58.9,11.0,old,south_east,0,0,0,0,1,0,0,1,0,0,0,1,0
221,9690000,panel,2,5,2,44.9,5.0,old,south_east,0,0,0,0,1,0,0,1,0,0,0,1,0
222,16000000,brick,4,9,2,57.0,10.0,old,centre,0,1,0,0,0,0,0,1,1,0,0,0,0
223,11300000,monolithic,6,19,2,58.0,8.0,old,north_west,0,0,1,0,0,0,0,1,0,0,1,0,0
224,12014033,monolithic,8,15,2,60.4,17.5,new,south_east,0,0,1,0,0,0,1,0,0,0,0,1,0
225,9500000,panel,9,16,2,53.5,9.2,old,south_west,0,0,0,0,1,0,0,1,0,0,0,0,1
226,8634230,panel,19,25,2,58.3,20.0,new,south_east,0,0,0,0,1,0,1,0,0,0,0,1,0
227,11690000,panel,6,9,2,48.0,6.5,old,south_east,0,0,0,0,1,0,0,1,0,0,0,1,0
228,15250000,monolithic,5,32,2,61.0,12.7,new,centre,0,0,1,0,0,0,1,0,1,0,0,0,0
229,7000000,panel,8,9,2,45.0,6.0,old,north_west,0,0,0,0,1,0,0,1,0,0,1,0,0
230,2350000,monolithic,17,25,2,59.0,9.0,old,south_east,0,0,1,0,0,0,0,1,0,0,0,1,0
231,14680000,monolithic,6,23,2,58.2,13.6,old,north_east,0,0,1,0,0,0,0,1,0,1,0,0,0
232,12000000,panel,17,17,2,58.4,10.0,old,south_east,0,0,0,0,1,0,0,1,0,0,0,1,0
233,11040000,monolithic,18,27,2,63.1,17.0,new,centre,0,0,1,0,0,0,1,0,1,0,0,0,0
234,6650000,panel,6,9,2,44.1,6.3,old,north_east,0,0,0,0,1,0,0,1,0,1,0,0,0
235,1350000,panel,6,6,2,70.0,18.0,old,centre,0,0,0,0,1,0,0,1,1,0,0,0,0
236,12500000,brick,7,11,2,64.0,6.0,old,centre,0,1,0,0,0,0,0,1,1,0,0,0,0
237,13483375,monolithic,19,19,2,66.6,12.6,old,centre,0,0,1,0,0,0,0,1,1,0,0,0,0
238,10900000,monolithic,2,19,2,51.7,9.2,new,north_west,0,0,1,0,0,0,1,0,0,0,1,0,0
239,11895000,monolithic,8,22,2,61.0,25.7,new,north_west,0,0,1,0,0,0,1,0,0,0,1,0,0
240,14250000,monolithic,4,12,2,76.0,24.7,new,centre,0,0,1,0,0,0,1,0,1,0,0,0,0
241,12000000,panel,9,14,2,56.0,11.0,old,north_west,0,0,0,0,1,0,0,1,0,0,1,0,0
242,9500000,panel,3,12,2,54.0,9.0,old,south_east,0,0,0,0,1,0,0,1,0,0,0,1,0
243,19800000,monolithic,15,20,2,68.7,13.5,new,south_east,0,0,1,0,0,0,1,0,0,0,0,1,0
244,8050000,panel,16,17,2,51.3,8.6,old,south_west,0,0,0,0,1,0,0,1,0,0,0,0,1
245,11900000,panel,4,17,2,56.9,9.3,old,north_west,0,0,0,0,1,0,0,1,0,0,1,0,0
246,10700000,panel,6,22,2,59.1,10.0,old,north_west,0,0,0,0,1,0,0,1,0,0,1,0,0
247,8350000,panel,13,17,2,56.2,11.0,old,south_east,0,0,0,0,1,0,0,1,0,0,0,1,0
248,16850000,monolithic,17,19,2,69.0,17.0,new,north_west,0,0,1,0,0,0,1,0,0,0,1,0,0
249,9994980,monolithic,11,24,2,69.7,22.4,new,south_west,0,0,1,0,0,0,1,0,0,0,0,0,1
250,18095000,monolithic,21,24,2,47.0,16.1,new,north_west,0,0,1,0,0,0,1,0,0,0,1,0,0
251,24024624,monolithic,21,37,2,144.2,58.5,new,centre,0,0,1,0,0,0,1,0,1,0,0,0,0
252,10406626,monolithic,18,23,2,61.5,17.6,new,south_west,0,0,1,0,0,0,1,0,0,0,0,0,1
253,18800000,monolithic,14,20,2,57.0,5.0,old,north_west,0,0,1,0,0,0,0,1,0,0,1,0,0
254,11391200,monolithic,9,14,2,46.4,19.7,new,centre,0,0,1,0,0,0,1,0,1,0,0,0,0
255,12300000,brick,6,8,2,43.0,6.0,old,south_east,0,1,0,0,0,0,0,1,0,0,0,1,0
256,7700000,panel,25,25,2,60.0,16.0,old,south_west,0,0,0,0,1,0,0,1,0,0,0,0,1
257,8000000,panel,5,15,2,54.0,12.7,new,south_east,0,0,0,0,1,0,1,0,0,0,0,1,0
258,7473560,panel,4,15,2,51.4,10.6,new,south_east,0,0,0,0,1,0,1,0,0,0,0,1,0
259,8835840,monolithic,15,25,2,53.1,19.6,new,south_west,0,0,1,0,0,0,1,0,0,0,0,0,1
260,5986977,panel,3,17,2,60.6,12.6,old,south_west,0,0,0,0,1,0,0,1,0,0,0,0,1
261,21000000,monolithic,14,17,2,76.0,12.0,new,south_east,0,0,1,0,0,0,1,0,0,0,0,1,0
262,8300000,panel,13,17,2,60.3,11.9,old,centre,0,0,0,0,1,0,0,1,1,0,0,0,0
263,25848000,monolithic,22,24,2,71.8,20.1,new,north_west,0,0,1,0,0,0,1,0,0,0,1,0,0
264,11800000,brick,6,9,2,60.0,8.4,old,centre,0,1,0,0,0,0,0,1,1,0,0,0,0
265,7900000,panel,5,17,2,58.8,12.8,old,south_west,0,0,0,0,1,0,0,1,0,0,0,0,1
266,18525000,monolithic,22,24,2,65.0,14.2,new,north_west,0,0,1,0,0,0,1,0,0,0,1,0,0
267,8000000,panel,16,17,2,64.0,13.0,old,south_west,0,0,0,0,1,0,0,1,0,0,0,0,1
268,8950000,brick,2,8,2,42.3,6.0,old,centre,0,1,0,0,0,0,0,1,1,0,0,0,0
269,10000000,monolithic,4,9,2,37.2,8.0,old,south_east,0,0,1,0,0,0,0,1,0,0,0,1,0
270,23200000,brick,2,3,2,67.6,20.3,old,centre,0,1,0,0,0,0,0,1,1,0,0,0,0
271,43000000,monolithic,6,14,2,78.0,12.6,old,centre,0,0,1,0,0,0,0,1,1,0,0,0,0
272,13200000,panel,2,17,2,53.0,9.8,old,south_east,0,0,0,0,1,0,0,1,0,0,0,1,0
273,8232000,monolithic,11,22,2,56.0,15.3,new,south_east,0,0,1,0,0,0,1,0,0,0,0,1,0
274,9088800,monolithic,30,33,2,42.0,5.2,new,north_west,0,0,1,0,0,0,1,0,0,0,1,0,0
275,9800000,brick,2,3,2,59.9,8.7,old,north_west,0,1,0,0,0,0,0,1,0,0,1,0,0
276,8900000,monolithic,7,11,2,62.0,12.0,new,south_east,0,0,1,0,0,0,1,0,0,0,0,1,0
277,8510680,panel,4,15,2,52.6,19.6,new,north_west,0,0,0,0,1,0,1,0,0,0,1,0,0
278,10547976,monolithic,10,24,2,62.12,17.12,new,south_west,0,0,1,0,0,0,1,0,0,0,0,0,1
279,12800000,monolithic,11,28,2,46.0,7.0,old,north_west,0,0,1,0,0,0,0,1,0,0,1,0,0
280,10070000,monolithic,15,22,2,47.2,10.7,new,centre,0,0,1,0,0,0,1,0,1,0,0,0,0
281,7900000,panel,3,5,2,45.0,5.5,old,north_east,0,0,0,0,1,0,0,1,0,1,0,0,0
282,7900000,blocky,9,9,2,37.2,7.0,old,south_east,1,0,0,0,0,0,0,1,0,0,0,1,0
283,12900000,monolithic,9,14,2,72.0,12.0,old,south_east,0,0,1,0,0,0,0,1,0,0,0,1,0
284,10700000,brick,4,17,2,63.9,12.8,old,south_east,0,1,0,0,0,0,0,1,0,0,0,1,0
285,16000000,monolithic,8,12,2,97.0,28.0,old,north_east,0,0,1,0,0,0,0,1,0,1,0,0,0
286,10250000,panel,4,5,2,57.0,7.0,old,north_west,0,0,0,0,1,0,0,1,0,0,1,0,0
287,9369877,monolithic,3,6,2,73.0,16.3,new,south_east,0,0,1,0,0,0,1,0,0,0,0,1,0
288,9200000,panel,15,16,2,53.4,9.0,old,north_east,0,0,0,0,1,0,0,1,0,1,0,0,0
289,8288000,monolithic,16,22,2,56.0,15.3,new,south_east,0,0,1,0,0,0,1,0,0,0,0,1,0
290,1900000,wooden,1,2,2,60.0,8.0,old,south_east,0,0,0,0,0,1,0,1,0,0,0,1,0
291,10200000,panel,4,5,2,45.0,8.0,old,south_east,0,0,0,0,1,0,0,1,0,0,0,1,0
292,14970910,monolithic,26,26,2,60.1,11.7,new,south_east,0,0,1,0,0,0,1,0,0,0,0,1,0
293,11600000,monolithic,13,16,2,56.9,11.8,old,south_west,0,0,1,0,0,0,0,1,0,0,0,0,1
294,8500000,panel,8,9,2,48.3,6.0,old,south_east,0,0,0,0,1,0,0,1,0,0,0,1,0
295,14500000,monolithic,13,25,2,66.0,11.0,old,south_west,0,0,1,0,0,0,0,1,0,0,0,0,1
296,23397000,monolithic,19,24,2,70.9,19.9,new,north_west,0,0,1,0,0,0,1,0,0,0,1,0,0
297,9200000,panel,6,14,2,64.0,13.0,old,north_west,0,0,0,0,1,0,0,1,0,0,1,0,0
298,7200000,blocky,5,12,2,38.9,6.4,old,north_east,1,0,0,0,0,0,0,1,0,1,0,0,0
299,6600000,panel,4,12,2,46.0,7.0,old,south_west,0,0,0,0,1,0,0,1,0,0,0,0,1
300,40800000,monolithic,6,20,2,121.0,25.0,old,south_east,0,0,1,0,0,0,0,1,0,0,0,1,0
301,9000000,blocky,16,16,2,50.5,11.0,old,south_east,1,0,0,0,0,0,0,1,0,0,0,1,0
302,5950000,panel,7,12,2,44.0,6.0,old,south_east,0,0,0,0,1,0,0,1,0,0,0,1,0
303,9000000,panel,5,14,2,52.0,10.0,old,north_west,0,0,0,0,1,0,0,1,0,0,1,0,0
304,11200000,panel,3,17,2,36.0,9.0,old,north_west,0,0,0,0,1,0,0,1,0,0,1,0,0
305,9400000,panel,3,12,2,52.0,8.0,old,south_west,0,0,0,0,1,0,0,1,0,0,0,0,1
306,45685300,monolithic,13,19,2,80.0,18.0,old,centre,0,0,1,0,0,0,0,1,1,0,0,0,0
307,9900000,brick,5,5,2,43.0,6.0,old,centre,0,1,0,0,0,0,0,1,1,0,0,0,0
308,11200000,panel,4,22,2,58.0,10.0,old,south_west,0,0,0,0,1,0,0,1,0,0,0,0,1
309,12650000,panel,16,17,2,54.0,9.0,old,north_west,0,0,0,0,1,0,0,1,0,0,1,0,0
310,7441254,monolithic,4,15,2,56.8,13.6,new,south_east,0,0,1,0,0,0,1,0,0,0,0,1,0
311,8468960,monolithic,16,17,2,65.6,19.1,new,south_east,0,0,1,0,0,0,1,0,0,0,0,1,0
312,15921430,monolithic,8,14,2,74.6,15.7,old,centre,0,0,1,0,0,0,0,1,1,0,0,0,0
313,9668500,panel,4,16,2,61.0,22.3,new,south_west,0,0,0,0,1,0,1,0,0,0,0,0,1
314,6100000,panel,7,12,2,50.0,9.6,old,south_east,0,0,0,0,1,0,0,1,0,0,0,1,0
315,8075000,panel,2,16,2,51.5,8.6,old,centre,0,0,0,0,1,0,0,1,1,0,0,0,0
316,9400000,brick,7,9,2,43.0,4.9,old,north_west,0,1,0,0,0,0,0,1,0,0,1,0,0
317,7700000,panel,5,18,2,54.0,9.0,old,south_west,0,0,0,0,1,0,0,1,0,0,0,0,1
318,8400000,brick,8,9,2,45.2,5.5,old,south_west,0,1,0,0,0,0,0,1,0,0,0,0,1
319,8950000,panel,2,12,2,43.0,6.0,old,south_east,0,0,0,0,1,0,0,1,0,0,0,1,0
320,6950000,blocky,3,14,2,38.6,7.0,old,south_west,1,0,0,0,0,0,0,1,0,0,0,0,1
321,9900000,brick,4,8,2,62.0,23.0,old,north_west,0,1,0,0,0,0,0,1,0,0,1,0,0
322,9700000,panel,7,12,2,45.0,7.0,old,centre,0,0,0,0,1,0,0,1,1,0,0,0,0
323,14200000,panel,11,22,2,58.0,10.5,old,north_east,0,0,0,0,1,0,0,1,0,1,0,0,0
324,9200000,panel,6,17,2,55.4,11.0,old,south_east,0,0,0,0,1,0,0,1,0,0,0,1,0
325,8100000,blocky,12,12,2,37.6,7.1,old,north_east,1,0,0,0,0,0,0,1,0,1,0,0,0
326,8500000,panel,6,12,2,60.1,11.0,old,south_west,0,0,0,0,1,0,0,1,0,0,0,0,1
327,13292400,monolithic,30,32,2,58.3,16.9,new,centre,0,0,1,0,0,0,1,0,1,0,0,0,0
328,9000000,panel,3,5,2,46.0,5.0,old,south_west,0,0,0,0,1,0,0,1,0,0,0,0,1
329,11000000,panel,15,17,2,54.0,9.5,old,south_east,0,0,0,0,1,0,0,1,0,0,0,1,0
330,13000000,monolithic,13,23,2,73.6,12.6,old,south_east,0,0,1,0,0,0,0,1,0,0,0,1,0
331,7751250,monolithic,2,25,2,68.9,10.5,new,south_east,0,0,1,0,0,0,1,0,0,0,0,1,0
332,8000000,panel,4,12,2,48.4,9.0,old,south_east,0,0,0,0,1,0,0,1,0,0,0,1,0
333,10000000,panel,9,14,2,52.1,9.8,old,south_west,0,0,0,0,1,0,0,1,0,0,0,0,1
334,7000000,panel,6,14,2,52.2,8.5,old,south_west,0,0,0,0,1,0,0,1,0,0,0,0,1
335,9300000,brick,8,9,2,38.0,7.0,old,centre,0,1,0,0,0,0,0,1,1,0,0,0,0
336,6948110,panel,5,9,2,55.1,21.7,new,south_east,0,0,0,0,1,0,1,0,0,0,0,1,0
337,12600000,monolithic,13,14,2,63.4,12.2,new,south_east,0,0,1,0,0,0,1,0,0,0,0,1,0
338,8900000,monolithic,15,31,2,54.1,19.0,old,south_east,0,0,1,0,0,0,0,1,0,0,0,1,0
339,10700000,panel,11,17,2,60.0,10.0,old,north_west,0,0,0,0,1,0,0,1,0,0,1,0,0
340,11200000,panel,15,17,2,58.0,10.0,old,south_east,0,0,0,0,1,0,0,1,0,0,0,1,0
341,10200000,blocky,11,12,2,44.7,6.0,old,north_east,1,0,0,0,0,0,0,1,0,1,0,0,0
342,39990000,monolithic,6,21,2,85.0,20.0,old,south_east,0,0,1,0,0,0,0,1,0,0,0,1,0
343,14000000,panel,5,17,2,50.0,8.0,old,south_east,0,0,0,0,1,0,0,1,0,0,0,1,0
344,8900000,panel,13,17,2,51.2,8.6,old,south_east,0,0,0,0,1,0,0,1,0,0,0,1,0
345,9935820,monolithic,13,25,2,57.3,20.3,new,south_west,0,0,1,0,0,0,1,0,0,0,0,0,1
346,14600000,panel,2,16,2,55.0,12.0,old,south_east,0,0,0,0,1,0,0,1,0,0,0,1,0
347,13053480,monolithic,5,23,2,72.6,18.4,new,centre,0,0,1,0,0,0,1,0,1,0,0,0,0
348,22490000,monolithic,35,36,2,75.0,13.0,old,centre,0,0,1,0,0,0,0,1,1,0,0,0,0
349,9708000,monolithic,32,33,2,60.0,19.9,new,south_east,0,0,1,0,0,0,1,0,0,0,0,1,0
350,9198464,monolithic,6,33,2,60.2,21.6,new,north_west,0,0,1,0,0,0,1,0,0,0,1,0,0
351,32432400,monolithic,16,26,2,75.6,21.5,new,centre,0,0,1,0,0,0,1,0,1,0,0,0,0
352,12620190,monolithic,23,23,2,68.7,19.0,new,centre,0,0,1,0,0,0,1,0,1,0,0,0,0
353,7200000,wooden,5,14,2,54.0,9.2,old,south_east,0,0,0,0,0,1,0,1,0,0,0,1,0
354,9500000,panel,5,9,2,45.0,7.0,old,south_east,0,0,0,0,1,0,0,1,0,0,0,1,0
355,30700000,brick,8,12,2,57.5,8.0,old,centre,0,1,0,0,0,0,0,1,1,0,0,0,0
356,4732800,blocky,10,12,2,35.8,6.7,old,south_west,1,0,0,0,0,0,0,1,0,0,0,0,1
357,8300000,panel,6,9,2,44.0,6.0,old,north_east,0,0,0,0,1,0,0,1,0,1,0,0,0
358,3050000,panel,12,17,2,58.0,10.0,old,south_east,0,0,0,0,1,0,0,1,0,0,0,1,0
359,15850000,panel,11,18,2,50.0,8.3,old,centre,0,0,0,0,1,0,0,1,1,0,0,0,0
360,8990000,blocky,1,14,2,38.0,6.2,old,north_west,1,0,0,0,0,0,0,1,0,0,1,0,0
361,14300000,panel,10,17,2,58.0,10.0,old,north_west,0,0,0,0,1,0,0,1,0,0,1,0,0
362,13250000,panel,13,17,2,58.0,10.0,old,north_west,0,0,0,0,1,0,0,1,0,0,1,0,0
363,11431000,monolithic,4,24,2,65.3,16.4,new,north_west,0,0,1,0,0,0,1,0,0,0,1,0,0
364,13774050,monolithic,21,25,2,53.7,20.0,new,south_west,0,0,1,0,0,0,1,0,0,0,0,0,1
365,9000000,panel,2,17,2,54.0,10.0,old,south_west,0,0,0,0,1,0,0,1,0,0,0,0,1
366,9700000,brick,5,9,2,52.7,9.1,old,north_east,0,1,0,0,0,0,0,1,0,1,0,0,0
367,9700000,monolithic,4,17,2,59.4,9.3,old,south_east,0,0,1,0,0,0,0,1,0,0,0,1,0
368,10350000,panel,18,22,2,57.4,9.9,old,south_west,0,0,0,0,1,0,0,1,0,0,0,0,1
369,11999000,brick,2,8,2,54.0,9.2,old,north_west,0,1,0,0,0,0,0,1,0,0,1,0,0
370,8900000,panel,3,12,2,46.0,7.0,old,north_west,0,0,0,0,1,0,0,1,0,0,1,0,0
371,15595800,monolithic,29,32,2,66.0,21.0,new,centre,0,0,1,0,0,0,1,0,1,0,0,0,0
372,13313100,panel,10,22,2,59.7,20.7,new,south_east,0,0,0,0,1,0,1,0,0,0,0,1,0
373,4400000,brick,2,5,2,58.2,7.7,old,centre,0,1,0,0,0,0,0,1,1,0,0,0,0
374,8800000,panel,1,5,2,41.9,4.0,old,north_east,0,0,0,0,1,0,0,1,0,1,0,0,0
375,11400000,blocky,14,17,2,53.6,10.0,old,south_east,1,0,0,0,0,0,0,1,0,0,0,1,0
376,24221102,monolithic,7,10,2,76.8,13.3,new,north_west,0,0,1,0,0,0,1,0,0,0,1,0,0
377,23700000,monolithic,15,19,2,59.1,11.6,new,centre,0,0,1,0,0,0,1,0,1,0,0,0,0
378,15699000,brick,9,16,2,53.7,12.0,old,north_west,0,1,0,0,0,0,0,1,0,0,1,0,0
379,13490700,monolithic,9,32,2,69.9,24.5,new,centre,0,0,1,0,0,0,1,0,1,0,0,0,0
380,15549560,monolithic,11,14,2,70.36,25.79,new,north_west,0,0,1,0,0,0,1,0,0,0,1,0,0
381,8333000,monolithic,3,33,2,64.1,20.9,new,south_east,0,0,1,0,0,0,1,0,0,0,0,1,0
382,9109280,monolithic,11,23,2,57.8,14.2,new,north_west,0,0,1,0,0,0,1,0,0,0,1,0,0
383,10500000,panel,6,12,2,52.7,8.5,old,centre,0,0,0,0,1,0,0,1,1,0,0,0,0
384,7649600,monolithic,7,33,2,56.0,12.2,new,south_east,0,0,1,0,0,0,1,0,0,0,0,1,0
385,10200000,monolithic,20,22,2,62.5,11.0,old,south_east,0,0,1,0,0,0,0,1,0,0,0,1,0
386,8666110,panel,15,16,2,52.3,19.6,new,south_west,0,0,0,0,1,0,1,0,0,0,0,0,1
387,9500000,panel,2,16,2,60.0,10.0,old,north_east,0,0,0,0,1,0,0,1,0,1,0,0,0
388,7900000,panel,3,5,2,45.0,6.0,old,north_east,0,0,0,0,1,0,0,1,0,1,0,0,0
389,8500000,panel,2,5,2,46.0,6.0,old,south_west,0,0,0,0,1,0,0,1,0,0,0,0,1
390,12000000,panel,5,22,2,57.9,10.2,old,south_east,0,0,0,0,1,0,0,1,0,0,0,1,0
391,11900000,panel,4,9,2,45.0,6.1,old,north_east,0,0,0,0,1,0,0,1,0,1,0,0,0
392,7000000,panel,1,14,2,52.0,9.0,old,south_west,0,0,0,0,1,0,0,1,0,0,0,0,1
393,6596040,monolithic,17,18,2,52.6,19.6,new,south_east,0,0,1,0,0,0,1,0,0,0,0,1,0
394,15623582,monolithic,20,20,2,60.6,12.0,new,centre,0,0,1,0,0,0,1,0,1,0,0,0,0
395,10750000,brick,5,8,2,47.0,8.2,old,centre,0,1,0,0,0,0,0,1,1,0,0,0,0
396,9400000,panel,2,12,2,44.1,6.2,old,south_east,0,0,0,0,1,0,0,1,0,0,0,1,0
397,10000000,panel,14,14,2,52.5,8.7,old,north_west,0,0,0,0,1,0,0,1,0,0,1,0,0
398,10900000,monolithic,5,10,2,67.0,9.0,old,south_west,0,0,1,0,0,0,0,1,0,0,0,0,1
399,7741570,monolithic,8,25,2,70.1,21.4,new,south_west,0,0,1,0,0,0,1,0,0,0,0,0,1
400,11100000,brick,3,8,2,63.4,8.4,old,centre,0,1,0,0,0,0,0,1,1,0,0,0,0
401,6800000,panel,3,17,2,59.3,9.2,old,south_east,0,0,0,0,1,0,0,1,0,0,0,1,0
402,8178936,monolithic,6,16,2,60.5,19.7,new,south_east,0,0,1,0,0,0,1,0,0,0,0,1,0
403,7501464,monolithic,5,5,2,61.0,12.0,old,north_east,0,0,1,0,0,0,0,1,0,1,0,0,0
404,10902500,monolithic,7,24,2,61.9,11.1,new,south_west,0,0,1,0,0,0,1,0,0,0,0,0,1
405,15400000,panel,5,5,2,44.0,6.5,old,centre,0,0,0,0,1,0,0,1,1,0,0,0,0
406,9600000,brick,3,8,2,45.0,6.0,old,north_west,0,1,0,0,0,0,0,1,0,0,1,0,0
407,8100000,panel,7,14,2,50.4,8.0,old,south_west,0,0,0,0,1,0,0,1,0,0,0,0,1
408,9362065,monolithic,9,14,2,61.2,13.8,new,centre,0,0,1,0,0,0,1,0,1,0,0,0,0
409,17000000,brick,3,9,2,46.0,6.0,old,centre,0,1,0,0,0,0,0,1,1,0,0,0,0
410,8280000,panel,2,9,2,45.3,7.0,old,north_west,0,0,0,0,1,0,0,1,0,0,1,0,0
411,8700000,brick,2,5,2,56.6,7.5,old,centre,0,1,0,0,0,0,0,1,1,0,0,0,0
412,11560000,monolithic,8,30,2,53.0,19.0,old,centre,0,0,1,0,0,0,0,1,1,0,0,0,0
413,7200000,panel,4,10,2,46.3,6.0,old,north_east,0,0,0,0,1,0,0,1,0,1,0,0,0
414,7790000,panel,4,12,2,52.0,9.0,old,north_west,0,0,0,0,1,0,0,1,0,0,1,0,0
415,10862720,panel,1,9,2,70.4,21.5,new,south_east,0,0,0,0,1,0,1,0,0,0,0,1,0
416,8700000,brick,3,5,2,65.5,7.6,old,north_east,0,1,0,0,0,0,0,1,0,1,0,0,0
417,11800000,blocky,8,17,2,62.1,10.0,old,north_east,1,0,0,0,0,0,0,1,0,1,0,0,0
418,15999000,monolithic,20,22,2,67.0,28.0,old,north_west,0,0,1,0,0,0,0,1,0,0,1,0,0
419,8300000,panel,5,9,2,47.0,7.0,old,south_east,0,0,0,0,1,0,0,1,0,0,0,1,0
420,12685400,monolithic,9,16,2,59.5,13.5,new,south_west,0,0,1,0,0,0,1,0,0,0,0,0,1
421,10779789,monolithic,18,21,2,52.6,12.3,new,north_west,0,0,1,0,0,0,1,0,0,0,1,0,0
422,7900000,panel,1,14,2,38.32,6.0,old,south_west,0,0,0,0,1,0,0,1,0,0,0,0,1
423,9807200,monolithic,13,22,2,65.6,10.2,new,south_west,0,0,1,0,0,0,1,0,0,0,0,0,1
424,7034720,panel,3,24,2,61.6,20.9,new,south_east,0,0,0,0,1,0,1,0,0,0,0,1,0
425,10050000,monolithic,18,19,2,64.0,17.0,new,south_east,0,0,1,0,0,0,1,0,0,0,0,1,0
426,12500000,brick,4,6,2,92.0,15.0,old,south_east,0,1,0,0,0,0,0,1,0,0,0,1,0
427,10112640,panel,9,14,2,68.7,21.4,new,south_east,0,0,0,0,1,0,1,0,0,0,0,1,0
428,5800000,brick,2,5,2,45.0,6.0,old,south_east,0,1,0,0,0,0,0,1,0,0,0,1,0
429,9900000,panel,7,12,2,47.5,9.6,old,south_east,0,0,0,0,1,0,0,1,0,0,0,1,0
430,12243000,monolithic,21,22,2,63.8,13.9,new,north_west,0,0,1,0,0,0,1,0,0,0,1,0,0
431,15000000,panel,3,17,2,63.4,12.9,old,north_west,0,0,0,0,1,0,0,1,0,0,1,0,0
432,9425920,monolithic,12,17,2,51.2,16.6,new,north_west,0,0,1,0,0,0,1,0,0,0,1,0,0
433,9000000,panel,3,9,2,40.0,7.5,old,south_east,0,0,0,0,1,0,0,1,0,0,0,1,0
434,14700000,monolithic,12,36,2,48.0,10.0,new,south_east,0,0,1,0,0,0,1,0,0,0,0,1,0
435,10032000,panel,7,25,2,60.8,14.7,new,north_east,0,0,0,0,1,0,1,0,0,1,0,0,0
436,7099000,monolithic,13,30,2,45.8,18.3,new,south_west,0,0,1,0,0,0,1,0,0,0,0,0,1
437,10980480,monolithic,18,33,2,53.2,19.1,new,north_west,0,0,1,0,0,0,1,0,0,0,1,0,0
438,5350000,panel,8,9,2,45.0,7.0,old,south_west,0,0,0,0,1,0,0,1,0,0,0,0,1
439,33000000,monolithic,2,25,2,112.3,19.4,old,south_east,0,0,1,0,0,0,0,1,0,0,0,1,0
440,8411070,panel,12,14,2,54.3,18.6,new,south_east,0,0,0,0,1,0,1,0,0,0,0,1,0
441,68000000,brick,4,8,2,90.0,10.0,old,centre,0,1,0,0,0,0,0,1,1,0,0,0,0
442,10950000,brick,2,9,2,46.0,8.0,old,south_east,0,1,0,0,0,0,0,1,0,0,0,1,0
443,17100000,brick,16,17,2,52.0,9.5,old,south_east,0,1,0,0,0,0,0,1,0,0,0,1,0
444,9123030,monolithic,18,25,2,56.7,19.6,new,south_west,0,0,1,0,0,0,1,0,0,0,0,0,1
445,9500000,panel,10,12,2,52.0,9.0,old,centre,0,0,0,0,1,0,0,1,1,0,0,0,0
446,6257133,panel,1,12,2,41.0,5.0,old,north_west,0,0,0,0,1,0,0,1,0,0,1,0,0
447,7300009,monolithic,7,15,2,55.5,15.2,new,south_east,0,0,1,0,0,0,1,0,0,0,0,1,0
448,38775000,monolithic,19,21,2,79.4,20.0,new,centre,0,0,1,0,0,0,1,0,1,0,0,0,0
449,8175000,monolithic,7,13,2,62.5,22.9,new,south_west,0,0,1,0,0,0,1,0,0,0,0,0,1
450,4842000,monolithic,21,24,2,54.1,16.5,new,centre,0,0,1,0,0,0,1,0,1,0,0,0,0
451,17020073,monolithic,6,10,2,54.3,13.4,new,centre,0,0,1,0,0,0,1,0,1,0,0,0,0
452,8571875,monolithic,10,18,2,53.2,12.5,new,south_east,0,0,1,0,0,0,1,0,0,0,0,1,0
453,7800000,blocky,2,5,2,45.7,5.6,old,north_west,1,0,0,0,0,0,0,1,0,0,1,0,0
454,12897720,monolithic,9,10,2,65.1,10.7,new,centre,0,0,1,0,0,0,1,0,1,0,0,0,0
455,11953920,monolithic,7,20,2,56.6,11.0,new,south_east,0,0,1,0,0,0,1,0,0,0,0,1,0
456,9927000,monolithic,19,25,2,66.2,14.2,new,south_west,0,0,1,0,0,0,1,0,0,0,0,0,1
457,7650000,panel,16,22,2,58.0,10.2,old,south_west,0,0,0,0,1,0,0,1,0,0,0,0,1
458,17589000,monolithic,21,24,2,42.9,13.6,new,north_west,0,0,1,0,0,0,1,0,0,0,1,0,0
459,19980000,monolithic,11,17,2,73.0,15.0,old,north_west,0,0,1,0,0,0,0,1,0,0,1,0,0
460,15675190,monolithic,2,11,2,71.7,21.1,new,north_west,0,0,1,0,0,0,1,0,0,0,1,0,0
461,10800000,monolithic,3,24,2,55.0,14.2,new,north_west,0,0,1,0,0,0,1,0,0,0,1,0,0
462,10099800,monolithic,21,24,2,62.0,22.6,new,south_west,0,0,1,0,0,0,1,0,0,0,0,0,1
463,10936000,monolithic,11,27,2,59.7,10.0,new,south_east,0,0,1,0,0,0,1,0,0,0,0,1,0
464,18012150,monolithic,15,20,2,58.5,11.1,new,south_east,0,0,1,0,0,0,1,0,0,0,0,1,0
465,15900000,monolithic,8,25,2,80.0,10.1,old,north_west,0,0,1,0,0,0,0,1,0,0,1,0,0
466,8300000,panel,1,9,2,45.4,6.0,old,south_west,0,0,0,0,1,0,0,1,0,0,0,0,1
467,10000000,panel,5,12,2,40.6,5.9,old,south_east,0,0,0,0,1,0,0,1,0,0,0,1,0
468,8500000,panel,11,12,2,39.2,6.5,old,south_east,0,0,0,0,1,0,0,1,0,0,0,1,0
469,10800000,brick,3,5,2,56.3,8.0,old,centre,0,1,0,0,0,0,0,1,1,0,0,0,0
470,28800000,monolithic,15,25,2,72.0,20.0,old,north_west,0,0,1,0,0,0,0,1,0,0,1,0,0
471,11836830,monolithic,24,33,2,57.1,21.1,new,north_west,0,0,1,0,0,0,1,0,0,0,1,0,0
472,25700000,monolithic,2,24,2,87.0,15.0,old,south_east,0,0,1,0,0,0,0,1,0,0,0,1,0
473,5796000,monolithic,6,26,2,50.4,9.0,new,north_east,0,0,1,0,0,0,1,0,0,1,0,0,0
474,11625600,monolithic,13,15,2,69.2,19.4,new,south_east,0,0,1,0,0,0,1,0,0,0,0,1,0
475,6500000,blocky,8,12,2,65.0,12.0,old,south_east,1,0,0,0,0,0,0,1,0,0,0,1,0
476,8711310,panel,12,17,2,49.3,16.0,new,south_east,0,0,0,0,1,0,1,0,0,0,0,1,0
477,11500000,brick,8,9,2,40.0,5.5,old,centre,0,1,0,0,0,0,0,1,1,0,0,0,0
478,8100000,panel,11,17,2,51.0,8.5,old,north_west,0,0,0,0,1,0,0,1,0,0,1,0,0
479,54665000,panel,3,5,2,133.0,30.9,old,centre,0,0,0,0,1,0,0,1,1,0,0,0,0
480,10203000,monolithic,15,16,2,53.7,20.0,new,south_west,0,0,1,0,0,0,1,0,0,0,0,0,1
481,9400000,panel,13,16,2,40.9,6.3,old,south_east,0,0,0,0,1,0,0,1,0,0,0,1,0
482,5927696,panel,11,17,2,56.4,9.3,old,south_west,0,0,0,0,1,0,0,1,0,0,0,0,1
483,8274210,monolithic,8,15,2,65.1,15.3,old,north_west,0,0,1,0,0,0,0,1,0,0,1,0,0
484,12725187,monolithic,4,20,2,71.5,27.1,new,north_west,0,0,1,0,0,0,1,0,0,0,1,0,0
485,10975851,monolithic,8,24,2,70.8,15.4,new,north_east,0,0,1,0,0,0,1,0,0,1,0,0,0
486,17600180,monolithic,11,26,2,48.7,9.8,new,north_west,0,0,1,0,0,0,1,0,0,0,1,0,0
487,7692793,monolithic,3,21,2,55.3,13.1,new,north_east,0,0,1,0,0,0,1,0,0,1,0,0,0
488,16739800,monolithic,5,19,2,43.5,16.0,new,centre,0,0,1,0,0,0,1,0,1,0,0,0,0
489,9900000,brick,3,5,2,45.0,6.0,old,north_west,0,1,0,0,0,0,0,1,0,0,1,0,0
490,14500000,panel,7,14,2,60.0,12.0,old,south_east,0,0,0,0,1,0,0,1,0,0,0,1,0
491,9800000,brick,5,5,2,63.0,7.5,old,north_east,0,1,0,0,0,0,0,1,0,1,0,0,0
492,15300000,monolithic,6,13,2,37.0,6.0,old,south_west,0,0,1,0,0,0,0,1,0,0,0,0,1
493,10500000,panel,2,17,2,64.3,12.5,old,south_west,0,0,0,0,1,0,0,1,0,0,0,0,1
494,12698190,monolithic,18,23,2,59.7,20.7,new,north_west,0,0,1,0,0,0,1,0,0,0,1,0,0
495,11800000,panel,14,16,2,57.6,10.1,old,north_west,0,0,0,0,1,0,0,1,0,0,1,0,0
496,13718000,monolithic,7,13,2,67.0,11.9,new,centre,0,0,1,0,0,0,1,0,1,0,0,0,0
497,9350000,panel,9,12,2,45.5,9.6,old,north_east,0,0,0,0,1,0,0,1,0,1,0,0,0
498,10857000,panel,7,14,2,51.7,10.0,old,south_west,0,0,0,0,1,0,0,1,0,0,0,0,1
499,9500000,monolithic,10,32,2,57.0,11.0,old,south_west,0,0,1,0,0,0,0,1,0,0,0,0,1
